<?xml version="1.0" encoding="utf-8"?>
<!-- Generator: Adobe Illustrator 16.0.0, SVG Export Plug-In . SVG Version: 6.00 Build 0)  -->
<!DOCTYPE svg PUBLIC "-//W3C//DTD SVG 1.1//EN" "http://www.w3.org/Graphics/SVG/1.1/DTD/svg11.dtd">
<svg version="1.1" id="Layer_1" xmlns="http://www.w3.org/2000/svg" xmlns:xlink="http://www.w3.org/1999/xlink" x="0px" y="0px"
	 width="84px" height="46px" viewBox="0 0 84 46" enable-background="new 0 0 84 46" xml:space="preserve">
<path fill-rule="evenodd" clip-rule="evenodd" fill="#FFFFFF" d="M81.396,37.28c-1.915,4.236-6.184,7.64-11.427,8.158
	c-1.718,0.17-3.407,0.055-5.076-0.377c-1.652-0.429-3.172-1.148-4.583-2.098c-1.431-0.962-2.679-2.112-3.674-3.534
	c-0.979-1.398-1.556-2.978-2.148-4.694c-0.163,0.476-0.28,0.837-0.413,1.191c-1.992,5.299-5.813,8.505-11.344,9.457
	c-5.816,1.003-11.553-1.859-14.52-6.867c-0.148-0.249-0.243-0.557-0.45-0.736c-0.208-0.181-0.524-0.31-0.796-0.317
	c-0.16-0.004-0.429,0.244-0.478,0.425c-0.777,2.899-2.781,4.684-5.383,5.885c-3.246,1.498-6.689,1.946-10.235,1.794
	c-3.177-0.136-6.22-0.786-9.062-2.253c-0.317-0.164-0.621-0.353-0.985-0.563c0.955-2.294,1.902-4.569,2.8-6.727
	c1.79,0.687,3.492,1.43,5.254,1.986c1.629,0.514,3.327,0.836,5.025,0.242c0.424-0.148,0.853-0.375,1.188-0.671
	c0.721-0.638,0.685-1.657-0.035-2.296c-0.703-0.626-1.597-0.824-2.475-1.033c-1.922-0.461-3.875-0.811-5.768-1.37
	c-2.083-0.614-3.813-1.804-4.458-4.01c-0.925-3.167-0.314-6.024,2.077-8.395c1.853-1.836,4.2-2.695,6.678-3.245
	c2.787-0.619,5.607-0.588,8.406-0.162c2.133,0.326,4.237,0.841,6.354,1.271c0.082,0.017,0.166,0.02,0.296,0.035
	c0-5.987,0-11.952,0-17.972c2.474,0,4.904,0,7.392,0c0,6.039,0,12.068,0,18.196c0.512-0.217,0.945-0.393,1.371-0.583
	c5.746-2.567,12.577-0.825,16.594,3.932c0.869,1.029,1.549,2.164,2.103,3.384c0.173,0.38,0.371,0.699,0.842,0.701
	c0.468,0.001,0.68-0.307,0.855-0.689c1.963-4.309,5.28-7.015,9.839-8.185c6.186-1.587,13.048,1.591,15.985,7.354
	c1.325,2.596,1.88,5.313,1.632,8.105c-0.186,0-0.382,0-0.577,0c-6.005,0-12.009,0-18.015,0c-0.666,0-0.699,0.004-0.651,0.673
	c0.05,0.662,0.101,1.337,0.275,1.973c0.563,2.053,2.067,3.009,4.068,3.287c2.167,0.3,4.133-0.17,5.52-1.949
	c0.568-0.729,1.062-0.805,1.866-0.623c1.93,0.438,3.88,0.785,5.82,1.174C81.183,37.173,81.272,37.229,81.396,37.28z M40.518,36.956
	c3.242,0.005,5.788-2.502,5.796-5.706c0.007-3.249-2.53-5.829-5.743-5.838c-3.218-0.009-5.792,2.558-5.798,5.782
	C34.765,34.406,37.304,36.951,40.518,36.956z M24.434,25.74c-2.153-0.892-4.251-1.647-6.469-2.014
	c-1.432-0.237-2.857-0.284-4.246,0.22c-0.528,0.191-0.99,0.49-1.036,1.139c-0.047,0.671,0.309,1.133,0.87,1.384
	c0.649,0.287,1.325,0.563,2.018,0.699c1.905,0.373,3.834,0.634,5.659,1.341c2.043,0.791,3.819,1.913,4.837,3.959
	c0.021,0.043,0.081,0.067,0.102,0.084c0-3.542,0-7.071,0-10.6c-0.044-0.011-0.089-0.021-0.134-0.032
	C25.507,23.18,24.979,24.439,24.434,25.74z M72.993,26.465c-0.048-2.101-2.045-3.708-4.322-3.554
	c-2.134,0.145-3.968,1.853-3.776,3.554C67.582,26.465,70.272,26.465,72.993,26.465z"/>
</svg>
